<svg xmlns="http://www.w3.org/2000/svg" xmlns:xlink="http://www.w3.org/1999/xlink" preserveAspectRatio="xMidYMid" width="244.687" height="91" viewBox="0 0 244.687 91">
  <defs>
    <style>
      .cls-1 {
        fill: #fff;
        fill-rule: evenodd;
      }
    </style>
  </defs>
  <path d="M244.686,14.207 L243.553,16.913 L237.173,13.887 L230.991,17.904 L237.161,21.698 L243.199,18.754 L244.348,21.347 L239.990,23.612 L244.135,26.283 L242.672,28.639 L238.562,26.065 L238.562,31.325 L235.698,31.325 L235.698,24.228 L229.714,20.508 L229.714,27.851 L235.388,31.411 L233.816,33.852 L229.714,31.212 L229.714,35.852 L226.850,35.852 L226.850,31.286 L222.387,34.121 L220.947,31.661 L226.850,27.855 L226.850,20.532 L220.788,24.474 L220.877,31.154 L218.099,31.154 L218.021,26.314 L214.071,28.806 L212.503,26.369 L216.337,23.979 L211.630,21.807 L212.751,18.999 L219.143,22.119 L225.581,17.927 L219.139,13.884 L212.996,16.746 L211.979,14.121 L216.341,12.043 L212.437,9.661 L213.880,7.188 L217.835,9.684 L217.835,4.346 L220.613,4.346 L220.613,11.357 L226.850,15.244 L226.850,8.327 L221.285,4.779 L222.721,2.326 L226.850,4.833 L226.850,-0.014 L229.714,-0.014 L229.714,4.798 L234.084,1.975 L235.628,4.517 L229.714,8.245 L229.714,15.233 L235.520,11.532 L235.434,4.856 L238.384,4.856 L238.457,9.637 L242.478,6.837 L244.053,9.282 L240.010,12.016 L244.686,14.207 ZM206.328,45.133 C201.735,43.510 197.567,42.057 193.655,40.775 C177.834,35.305 166.777,32.058 160.483,31.032 C148.321,29.066 134.201,30.690 117.956,35.989 L132.330,49.663 L101.200,33.938 C92.865,30.690 85.550,29.323 79.341,30.177 C73.387,31.032 65.137,34.365 54.420,39.920 L61.394,49.663 L46.595,38.211 C38.429,32.229 31.540,30.177 26.182,32.058 C22.099,33.254 13.423,39.322 -0.015,50.432 C11.807,30.861 20.653,20.008 26.607,18.042 C32.816,15.734 40.811,21.119 50.592,34.194 C62.500,22.486 72.451,16.162 80.276,15.307 C88.272,14.452 98.053,18.982 109.450,28.639 C127.652,17.358 144.068,13.256 158.442,16.589 C166.692,18.555 178.345,24.024 193.655,33.340 C197.567,35.818 201.905,38.467 206.328,41.373 C210.155,43.851 214.323,46.672 218.576,49.663 C214.323,48.039 210.155,46.586 206.328,45.133 ZM18.005,82.915 L18.005,43.922 L25.538,43.922 L25.538,56.792 C25.538,57.707 25.533,58.554 25.522,59.331 C25.511,60.108 25.496,60.710 25.474,61.135 L25.538,61.135 C26.025,60.795 26.555,60.465 27.127,60.145 C27.699,59.826 28.324,59.539 29.002,59.283 C29.680,59.028 30.412,58.825 31.195,58.676 C31.979,58.527 32.806,58.453 33.675,58.453 C35.391,58.453 37.060,58.767 38.681,59.395 C40.301,60.023 41.742,60.981 43.003,62.269 C44.264,63.557 45.265,65.207 46.007,67.219 C46.748,69.231 47.119,71.546 47.119,74.165 C47.119,76.954 46.716,79.424 45.911,81.574 C45.106,83.724 44.052,85.492 42.749,86.876 C41.446,88.259 39.978,89.287 38.347,89.957 C36.715,90.628 35.073,90.963 33.420,90.963 C32.255,90.963 31.206,90.820 30.274,90.532 C29.341,90.245 28.526,89.888 27.826,89.462 C27.127,89.037 26.539,88.589 26.062,88.121 C25.586,87.653 25.210,87.237 24.934,86.876 L24.807,86.876 L24.076,90.165 L17.846,90.165 C17.889,89.249 17.926,88.116 17.958,86.764 C17.989,85.412 18.005,84.129 18.005,82.915 ZM25.538,81.766 C25.835,82.106 26.200,82.463 26.634,82.836 C27.069,83.208 27.556,83.549 28.097,83.858 C28.637,84.166 29.225,84.422 29.861,84.624 C30.496,84.826 31.174,84.927 31.895,84.927 C33.124,84.927 34.199,84.677 35.121,84.177 C36.042,83.677 36.816,82.969 37.441,82.053 C38.066,81.138 38.537,80.047 38.855,78.780 C39.173,77.513 39.332,76.102 39.332,74.548 C39.332,72.611 39.099,70.945 38.633,69.550 C38.167,68.156 37.557,67.091 36.805,66.357 C36.053,65.622 35.269,65.127 34.453,64.872 C33.637,64.616 32.827,64.489 32.022,64.489 C30.920,64.489 29.797,64.712 28.653,65.159 C27.508,65.606 26.470,66.202 25.538,66.948 L25.538,81.766 ZM61.009,77.327 C61.009,78.370 61.083,79.269 61.231,80.025 C61.379,80.781 61.602,81.436 61.898,81.989 C62.407,82.926 63.127,83.623 64.060,84.081 C64.992,84.539 66.105,84.768 67.397,84.768 C68.753,84.768 69.913,84.512 70.877,84.001 C71.841,83.490 72.567,82.713 73.054,81.670 C73.542,80.669 73.786,79.275 73.786,77.486 L73.786,59.219 L81.318,59.219 L81.318,78.125 C81.318,80.637 80.884,82.756 80.015,84.480 C79.528,85.460 78.897,86.349 78.124,87.147 C77.351,87.945 76.439,88.627 75.391,89.191 C74.342,89.755 73.155,90.192 71.831,90.500 C70.507,90.809 69.029,90.963 67.397,90.963 C64.303,90.963 61.740,90.436 59.705,89.382 C57.671,88.329 56.135,86.908 55.097,85.119 C54.546,84.161 54.138,83.107 53.873,81.957 C53.608,80.808 53.476,79.530 53.476,78.125 L53.476,59.219 L61.009,59.219 L61.009,77.327 ZM97.093,90.165 L89.535,90.165 L89.535,43.922 L97.093,43.922 L97.093,90.165 ZM117.159,59.219 L107.074,73.977 L119.694,90.165 L110.798,90.165 L98.503,74.014 L108.277,59.219 L117.159,59.219 ZM125.704,62.952 C127.050,61.526 128.676,60.424 130.583,59.647 C132.490,58.870 134.620,58.481 136.972,58.481 C139.387,58.481 141.554,58.870 143.471,59.647 C145.389,60.424 147.015,61.526 148.350,62.952 C149.685,64.379 150.708,66.092 151.417,68.094 C152.127,70.095 152.482,72.309 152.482,74.736 C152.482,77.164 152.122,79.378 151.402,81.379 C150.681,83.380 149.648,85.094 148.303,86.521 C146.957,87.947 145.331,89.049 143.424,89.826 C141.517,90.603 139.387,90.992 137.035,90.992 C134.620,90.992 132.453,90.603 130.536,89.826 C128.618,89.049 126.992,87.947 125.657,86.521 C124.322,85.094 123.299,83.380 122.590,81.379 C121.880,79.378 121.525,77.164 121.525,74.736 C121.525,72.309 121.885,70.095 122.606,68.094 C123.326,66.092 124.359,64.379 125.704,62.952 ZM129.884,79.080 C130.265,80.336 130.800,81.384 131.489,82.225 C132.178,83.066 132.993,83.705 133.936,84.142 C134.879,84.578 135.912,84.796 137.035,84.796 C138.158,84.796 139.186,84.578 140.118,84.142 C141.051,83.705 141.856,83.066 142.534,82.225 C143.212,81.384 143.742,80.336 144.123,79.080 C144.505,77.823 144.695,76.376 144.695,74.736 C144.695,73.097 144.505,71.649 144.123,70.393 C143.742,69.137 143.212,68.083 142.534,67.231 C141.856,66.380 141.040,65.741 140.086,65.315 C139.133,64.890 138.095,64.677 136.972,64.677 C135.870,64.677 134.847,64.890 133.905,65.315 C132.962,65.741 132.151,66.380 131.473,67.231 C130.795,68.083 130.265,69.137 129.884,70.393 C129.503,71.649 129.312,73.097 129.312,74.736 C129.312,76.376 129.503,77.823 129.884,79.080 ZM167.579,71.064 C168.808,74.385 169.931,77.706 170.949,81.028 L171.076,81.028 C171.966,78.154 173.067,74.896 174.381,71.255 L178.672,59.247 L186.681,59.247 L174.763,90.193 L167.293,90.193 L155.343,59.247 L163.289,59.247 L167.579,71.064 ZM193.992,62.633 C195.348,61.249 196.900,60.211 198.648,59.519 C200.396,58.827 202.202,58.481 204.067,58.481 C206.017,58.481 207.812,58.779 209.454,59.375 C211.097,59.971 212.516,60.908 213.713,62.186 C214.911,63.463 215.843,65.108 216.510,67.120 C217.178,69.132 217.512,71.511 217.512,74.257 C217.491,75.322 217.459,76.227 217.416,76.972 L197.234,76.972 C197.340,78.398 197.657,79.617 198.187,80.628 C198.717,81.640 199.411,82.460 200.269,83.088 C201.127,83.716 202.128,84.173 203.272,84.461 C204.417,84.748 205.656,84.892 206.991,84.892 C208.453,84.892 209.979,84.743 211.568,84.445 C213.157,84.147 214.768,83.721 216.399,83.167 L216.399,89.203 C215.425,89.629 213.931,90.034 211.918,90.417 C209.905,90.800 207.818,90.992 205.656,90.992 C203.474,90.992 201.403,90.709 199.443,90.145 C197.483,89.581 195.772,88.671 194.310,87.415 C192.848,86.159 191.687,84.530 190.829,82.529 C189.971,80.527 189.542,78.100 189.542,75.247 C189.542,72.437 189.945,69.978 190.750,67.870 C191.555,65.762 192.636,64.017 193.992,62.633 ZM209.693,71.064 C209.693,70.148 209.571,69.286 209.327,68.477 C209.084,67.668 208.723,66.960 208.247,66.353 C207.770,65.747 207.177,65.267 206.467,64.916 C205.757,64.565 204.925,64.389 203.972,64.389 C203.018,64.389 202.171,64.565 201.429,64.916 C200.687,65.267 200.047,65.747 199.506,66.353 C198.966,66.960 198.537,67.668 198.219,68.477 C197.901,69.286 197.689,70.148 197.583,71.064 L209.693,71.064 ZM232.355,90.193 L224.822,90.193 L224.822,43.950 L232.355,43.950 L232.355,90.193 Z" class="cls-1"/>
</svg>
