<svg xmlns="http://www.w3.org/2000/svg" xmlns:xlink="http://www.w3.org/1999/xlink" preserveAspectRatio="xMidYMid" width="1446.004" height="122.438" viewBox="0 0 1446.004 122.438">
  <defs>
    <style>
      .cls-1 {
        fill: #fff;
        fill-rule: evenodd;
      }
    </style>
  </defs>
  <path d="M1424.605,121.110 L1424.605,83.909 L1390.388,83.909 L1390.388,121.110 L1368.932,121.110 L1368.932,28.681 L1390.388,28.681 L1390.388,67.404 L1424.605,67.404 L1424.605,28.681 L1445.998,28.681 L1445.998,121.110 L1424.605,121.110 ZM1314.150,122.443 C1302.426,122.443 1292.925,118.751 1285.646,111.365 C1278.367,103.981 1274.728,94.596 1274.728,83.211 L1274.728,66.579 C1274.728,55.238 1278.356,45.863 1285.615,38.457 C1292.872,31.051 1302.342,27.347 1314.023,27.347 C1325.618,27.347 1335.056,31.051 1342.335,38.457 C1349.614,45.863 1353.254,55.238 1353.254,66.579 L1353.254,83.211 C1353.254,94.596 1349.646,103.981 1342.431,111.365 C1335.215,118.751 1325.788,122.443 1314.150,122.443 ZM1331.861,66.452 C1331.861,59.850 1330.306,54.433 1327.195,50.201 C1324.085,45.969 1319.693,43.853 1314.023,43.853 C1308.224,43.853 1303.791,45.958 1300.723,50.169 C1297.654,54.381 1296.121,59.808 1296.121,66.452 L1296.121,83.211 C1296.121,89.899 1297.676,95.358 1300.787,99.589 C1303.897,103.822 1308.351,105.938 1314.150,105.938 C1319.778,105.938 1324.137,103.822 1327.227,99.589 C1330.316,95.358 1331.861,89.899 1331.861,83.211 L1331.861,66.452 ZM1261.780,95.209 C1261.780,103.716 1258.203,110.381 1251.052,115.206 C1243.899,120.030 1234.567,122.443 1223.056,122.443 C1213.280,122.443 1204.805,120.179 1197.632,115.650 C1190.459,111.122 1186.999,104.520 1187.253,95.844 L1187.380,95.463 L1208.265,95.463 C1208.265,98.469 1209.651,100.965 1212.423,102.954 C1215.195,104.944 1218.740,105.938 1223.056,105.938 C1228.389,105.938 1232.599,104.890 1235.689,102.795 C1238.778,100.700 1240.323,98.024 1240.323,94.765 C1240.323,90.237 1238.968,86.957 1236.260,84.925 C1233.552,82.894 1229.489,81.878 1224.072,81.878 L1211.122,81.878 L1211.122,65.944 L1224.072,65.944 C1229.108,65.944 1232.842,64.928 1235.276,62.897 C1237.710,60.866 1238.927,57.967 1238.927,54.200 C1238.927,51.280 1237.562,48.826 1234.832,46.836 C1232.102,44.847 1228.176,43.853 1223.056,43.853 C1219.120,43.853 1215.872,44.752 1213.312,46.551 C1210.751,48.350 1209.471,50.772 1209.471,53.819 L1188.649,53.819 L1188.586,53.438 C1188.332,45.652 1191.569,39.356 1198.298,34.553 C1205.028,29.750 1213.280,27.347 1223.056,27.347 C1234.525,27.347 1243.602,29.633 1250.290,34.203 C1256.976,38.774 1260.320,45.292 1260.320,53.756 C1260.320,57.988 1258.965,61.861 1256.257,65.373 C1253.548,68.886 1249.803,71.637 1245.021,73.625 C1250.438,75.446 1254.585,78.175 1257.463,81.815 C1260.341,85.455 1261.780,89.919 1261.780,95.209 ZM1136.026,65.055 L1168.592,65.055 L1168.592,81.561 L1136.026,81.561 L1136.026,104.604 L1175.067,104.604 L1175.067,121.110 L1114.569,121.110 L1114.569,28.681 L1175.130,28.681 L1175.130,45.186 L1136.026,45.186 L1136.026,65.055 ZM1100.098,59.723 L1079.212,59.723 C1079.212,54.052 1078.006,49.989 1075.594,47.535 C1073.182,45.081 1069.224,43.853 1063.723,43.853 C1058.898,43.853 1055.194,45.789 1052.614,49.661 C1050.032,53.534 1048.741,58.686 1048.741,65.119 L1048.741,84.544 C1048.741,91.019 1050.159,96.204 1052.994,100.097 C1055.829,103.991 1059.892,105.938 1065.183,105.938 C1070.092,105.938 1073.636,104.711 1075.816,102.256 C1077.995,99.802 1079.085,95.696 1079.085,89.940 L1099.971,89.940 L1100.098,90.321 C1100.266,100.859 1097.294,108.848 1091.179,114.285 C1085.063,119.724 1076.397,122.443 1065.183,122.443 C1053.756,122.443 1044.583,118.951 1037.664,111.968 C1030.744,104.985 1027.284,95.844 1027.284,84.544 L1027.284,65.246 C1027.284,53.989 1030.617,44.858 1037.283,37.854 C1043.948,30.850 1052.761,27.347 1063.723,27.347 C1075.445,27.347 1084.513,30.077 1090.925,35.537 C1097.336,40.996 1100.457,48.931 1100.288,59.342 L1100.098,59.723 ZM955.492,63.849 L955.111,63.786 L921.275,121.110 L899.819,121.110 L899.819,28.681 L921.275,28.681 L921.275,85.877 L921.656,85.941 L955.492,28.681 L976.949,28.681 L976.949,121.110 L955.492,121.110 L955.492,63.849 ZM938.415,19.476 C931.263,19.476 925.570,17.698 921.339,14.143 C917.106,10.588 915.118,5.997 915.372,0.368 L915.499,-0.013 L930.925,-0.013 C930.925,1.977 931.528,3.605 932.734,4.875 C933.940,6.145 935.833,6.779 938.415,6.779 C940.955,6.779 942.827,6.145 944.034,4.875 C945.240,3.605 945.843,1.977 945.843,-0.013 L961.332,-0.013 L961.459,0.368 C961.670,5.997 959.660,10.588 955.428,14.143 C951.196,17.698 945.525,19.476 938.415,19.476 ZM862.367,63.849 L861.986,63.786 L828.151,121.110 L806.694,121.110 L806.694,28.681 L828.151,28.681 L828.151,85.877 L828.531,85.941 L862.367,28.681 L883.824,28.681 L883.824,121.110 L862.367,121.110 L862.367,63.849 ZM792.603,93.749 C792.603,102.763 789.577,109.578 783.526,114.190 C777.473,118.803 768.798,121.110 757.498,121.110 L722.266,121.110 L722.266,28.681 L752.547,28.681 C764.015,28.681 772.956,30.807 779.368,35.060 C785.779,39.314 788.985,45.652 788.985,54.073 C788.985,58.475 787.969,62.379 785.938,65.785 C783.907,69.193 780.732,71.764 776.416,73.498 C781.917,74.684 785.991,77.139 788.636,80.862 C791.280,84.587 792.603,88.883 792.603,93.749 ZM763.846,47.884 C761.391,46.085 757.625,45.186 752.547,45.186 L743.723,45.186 L743.723,67.214 L752.166,67.214 C757.329,67.214 761.180,66.315 763.719,64.516 C766.259,62.718 767.528,60.040 767.528,56.485 C767.528,52.550 766.300,49.683 763.846,47.884 ZM768.195,84.671 C766.184,82.640 762.872,81.561 758.260,81.434 L757.562,81.434 L743.723,81.434 L743.723,104.604 L757.498,104.604 C762.069,104.604 765.497,103.706 767.782,101.906 C770.068,100.108 771.210,97.347 771.210,93.622 C771.210,89.686 770.204,86.703 768.195,84.671 ZM667.484,122.443 C655.761,122.443 646.259,118.751 638.981,111.365 C631.701,103.981 628.062,94.596 628.062,83.211 L628.062,66.579 C628.062,55.238 631.690,45.863 638.949,38.457 C646.207,31.051 655.676,27.347 667.357,27.347 C678.952,27.347 688.390,31.051 695.670,38.457 C702.948,45.863 706.589,55.238 706.589,66.579 L706.589,83.211 C706.589,94.596 702.980,103.981 695.765,111.365 C688.549,118.751 679.122,122.443 667.484,122.443 ZM685.195,66.452 C685.195,59.850 683.640,54.433 680.529,50.201 C677.419,45.969 673.028,43.853 667.357,43.853 C661.558,43.853 657.126,45.958 654.058,50.169 C650.989,54.381 649.455,59.808 649.455,66.452 L649.455,83.211 C649.455,89.899 651.011,95.358 654.121,99.589 C657.232,103.822 661.685,105.938 667.484,105.938 C673.112,105.938 677.471,103.822 680.561,99.589 C683.650,95.358 685.195,89.899 685.195,83.211 L685.195,66.452 ZM595.816,121.110 L574.359,121.110 L574.359,45.186 L550.363,45.186 L550.363,28.681 L620.256,28.681 L620.256,45.186 L595.816,45.186 L595.816,121.110 ZM519.260,63.849 L518.879,63.786 L485.043,121.110 L463.587,121.110 L463.587,28.681 L485.043,28.681 L485.043,85.877 L485.424,85.941 L519.260,28.681 L540.717,28.681 L540.717,121.110 L519.260,121.110 L519.260,63.849 ZM425.881,61.564 L425.500,61.500 L405.123,121.110 L390.712,121.110 L370.716,62.389 L370.335,62.453 L370.335,121.110 L348.878,121.110 L348.878,28.681 L377.000,28.681 L397.695,93.368 L398.076,93.368 L418.962,28.681 L447.338,28.681 L447.338,121.110 L425.881,121.110 L425.881,61.564 ZM311.680,103.144 L284.193,103.144 L278.860,121.110 L256.261,121.110 L286.415,28.681 L297.905,28.681 L297.905,28.744 L297.968,28.681 L309.459,28.681 L339.676,121.110 L317.076,121.110 L311.680,103.144 ZM298.095,57.946 L297.714,57.946 L289.144,86.639 L306.729,86.639 L298.095,57.946 ZM248.836,59.723 L227.951,59.723 C227.951,54.052 226.745,49.989 224.332,47.535 C221.920,45.081 217.962,43.853 212.461,43.853 C207.637,43.853 203.933,45.789 201.352,49.661 C198.770,53.534 197.480,58.686 197.480,65.119 L197.480,84.544 C197.480,91.019 198.897,96.204 201.733,100.097 C204.568,103.991 208.631,105.938 213.921,105.938 C218.830,105.938 222.374,104.711 224.555,102.256 C226.734,99.802 227.824,95.696 227.824,89.940 L248.709,89.940 L248.836,90.321 C249.005,100.859 246.032,108.848 239.917,114.285 C233.801,119.724 225.136,122.443 213.921,122.443 C202.495,122.443 193.322,118.951 186.402,111.968 C179.483,104.985 176.023,95.844 176.023,84.544 L176.023,65.246 C176.023,53.989 179.356,44.858 186.021,37.854 C192.687,30.850 201.500,27.347 212.461,27.347 C224.184,27.347 233.252,30.077 239.663,35.537 C246.075,40.996 249.195,48.931 249.027,59.342 L248.836,59.723 ZM142.888,121.110 L121.622,84.036 L115.655,84.036 L115.655,121.110 L94.198,121.110 L94.198,28.681 L115.655,28.681 L115.655,64.865 L120.098,64.865 L140.984,28.681 L167.963,28.681 L138.889,70.705 L170.439,121.110 L142.888,121.110 ZM39.416,122.443 C27.693,122.443 18.191,118.751 10.913,111.365 C3.633,103.981 -0.006,94.596 -0.006,83.211 L-0.006,66.579 C-0.006,55.238 3.622,45.863 10.881,38.457 C18.139,31.051 27.608,27.347 39.289,27.347 C50.884,27.347 60.322,31.051 67.602,38.457 C74.880,45.863 78.520,55.238 78.520,66.579 L78.520,83.211 C78.520,94.596 74.912,103.981 67.697,111.365 C60.481,118.751 51.054,122.443 39.416,122.443 ZM57.127,66.452 C57.127,59.850 55.572,54.433 52.461,50.201 C49.351,45.969 44.960,43.853 39.289,43.853 C33.490,43.853 29.057,45.958 25.990,50.169 C22.921,54.381 21.387,59.808 21.387,66.452 L21.387,83.211 C21.387,89.899 22.942,95.358 26.053,99.589 C29.164,103.822 33.617,105.938 39.416,105.938 C45.044,105.938 49.403,103.822 52.493,99.589 C55.582,95.358 57.127,89.899 57.127,83.211 L57.127,66.452 Z" class="cls-1"/>
</svg>
